%!PS-Adobe-3.0
%%Creator: graphviz version 2.43.0 (0)
%%Title: G
%%Pages: (atend)
%%BoundingBox: (atend)
%%EndComments
save
%%BeginProlog
/DotDict 200 dict def
DotDict begin

/setupLatin1 {
mark
/EncodingVector 256 array def
 EncodingVector 0

ISOLatin1Encoding 0 255 getinterval putinterval
EncodingVector 45 /hyphen put

% Set up ISO Latin 1 character encoding
/starnetISO {
        dup dup findfont dup length dict begin
        { 1 index /FID ne { def }{ pop pop } ifelse
        } forall
        /Encoding EncodingVector def
        currentdict end definefont
} def
/Times-Roman starnetISO def
/Times-Italic starnetISO def
/Times-Bold starnetISO def
/Times-BoldItalic starnetISO def
/Helvetica starnetISO def
/Helvetica-Oblique starnetISO def
/Helvetica-Bold starnetISO def
/Helvetica-BoldOblique starnetISO def
/Courier starnetISO def
/Courier-Oblique starnetISO def
/Courier-Bold starnetISO def
/Courier-BoldOblique starnetISO def
cleartomark
} bind def

%%BeginResource: procset graphviz 0 0
/coord-font-family /Times-Roman def
/default-font-family /Times-Roman def
/coordfont coord-font-family findfont 8 scalefont def

/InvScaleFactor 1.0 def
/set_scale {
       dup 1 exch div /InvScaleFactor exch def
       scale
} bind def

% styles
/solid { [] 0 setdash } bind def
/dashed { [9 InvScaleFactor mul dup ] 0 setdash } bind def
/dotted { [1 InvScaleFactor mul 6 InvScaleFactor mul] 0 setdash } bind def
/invis {/fill {newpath} def /stroke {newpath} def /show {pop newpath} def} bind def
/bold { 2 setlinewidth } bind def
/filled { } bind def
/unfilled { } bind def
/rounded { } bind def
/diagonals { } bind def
/tapered { } bind def

% hooks for setting color 
/nodecolor { sethsbcolor } bind def
/edgecolor { sethsbcolor } bind def
/graphcolor { sethsbcolor } bind def
/nopcolor {pop pop pop} bind def

/beginpage {	% i j npages
	/npages exch def
	/j exch def
	/i exch def
	/str 10 string def
	npages 1 gt {
		gsave
			coordfont setfont
			0 0 moveto
			(\() show i str cvs show (,) show j str cvs show (\)) show
		grestore
	} if
} bind def

/set_font {
	findfont exch
	scalefont setfont
} def

% draw text fitted to its expected width
/alignedtext {			% width text
	/text exch def
	/width exch def
	gsave
		width 0 gt {
			[] 0 setdash
			text stringwidth pop width exch sub text length div 0 text ashow
		} if
	grestore
} def

/boxprim {				% xcorner ycorner xsize ysize
		4 2 roll
		moveto
		2 copy
		exch 0 rlineto
		0 exch rlineto
		pop neg 0 rlineto
		closepath
} bind def

/ellipse_path {
	/ry exch def
	/rx exch def
	/y exch def
	/x exch def
	matrix currentmatrix
	newpath
	x y translate
	rx ry scale
	0 0 1 0 360 arc
	setmatrix
} bind def

/endpage { showpage } bind def
/showpage { } def

/layercolorseq
	[	% layer color sequence - darkest to lightest
		[0 0 0]
		[.2 .8 .8]
		[.4 .8 .8]
		[.6 .8 .8]
		[.8 .8 .8]
	]
def

/layerlen layercolorseq length def

/setlayer {/maxlayer exch def /curlayer exch def
	layercolorseq curlayer 1 sub layerlen mod get
	aload pop sethsbcolor
	/nodecolor {nopcolor} def
	/edgecolor {nopcolor} def
	/graphcolor {nopcolor} def
} bind def

/onlayer { curlayer ne {invis} if } def

/onlayers {
	/myupper exch def
	/mylower exch def
	curlayer mylower lt
	curlayer myupper gt
	or
	{invis} if
} def

/curlayer 0 def

%%EndResource
%%EndProlog
%%BeginSetup
14 default-font-family set_font
% /arrowlength 10 def
% /arrowwidth 5 def

% make sure pdfmark is harmless for PS-interpreters other than Distiller
/pdfmark where {pop} {userdict /pdfmark /cleartomark load put} ifelse
% make '<<' and '>>' safe on PS Level 1 devices
/languagelevel where {pop languagelevel}{1} ifelse
2 lt {
    userdict (<<) cvn ([) cvn load put
    userdict (>>) cvn ([) cvn load put
} if

%%EndSetup
setupLatin1
%%Page: 1 1
%%PageBoundingBox: 36 36 179 296
%%PageOrientation: Portrait
0 0 1 beginpage
gsave
36 36 143 260 boxprim clip newpath
1 1 set_scale 0 rotate 40 40 translate
% n0
gsave
1 setlinewidth
0 0 0 nodecolor
67.594 234 67.6881 18 ellipse_path stroke
0 0 0 nodecolor
14 /Times-Roman set_font
23.594 230.3 moveto 88 (PROGRAMA) alignedtext
grestore
% n1
gsave
1 setlinewidth
0 0 0 nodecolor
67.594 162 53.0913 18 ellipse_path stroke
0 0 0 nodecolor
14 /Times-Roman set_font
34.594 158.3 moveto 66 (FUNCAO) alignedtext
grestore
% n0->n1
gsave
1 setlinewidth
0 0 0 edgecolor
newpath 67.594 215.6966 moveto
67.594 207.9827 67.594 198.7125 67.594 190.1124 curveto
stroke
0 0 0 edgecolor
newpath 71.0941 190.1043 moveto
67.594 180.1043 lineto
64.0941 190.1044 lineto
closepath fill
1 setlinewidth
solid
0 0 0 edgecolor
newpath 71.0941 190.1043 moveto
67.594 180.1043 lineto
64.0941 190.1044 lineto
closepath stroke
grestore
% n2
gsave
1 setlinewidth
0 0 0 nodecolor
67.594 90 63.0888 18 ellipse_path stroke
0 0 0 nodecolor
14 /Times-Roman set_font
27.094 86.3 moveto 81 (COMANDO) alignedtext
grestore
% n1->n2
gsave
1 setlinewidth
0 0 0 edgecolor
newpath 67.594 143.6966 moveto
67.594 135.9827 67.594 126.7125 67.594 118.1124 curveto
stroke
0 0 0 edgecolor
newpath 71.0941 118.1043 moveto
67.594 108.1043 lineto
64.0941 118.1044 lineto
closepath fill
1 setlinewidth
solid
0 0 0 edgecolor
newpath 71.0941 118.1043 moveto
67.594 108.1043 lineto
64.0941 118.1044 lineto
closepath stroke
grestore
% n3
gsave
1 setlinewidth
0 0 0 nodecolor
67.594 18 63.0888 18 ellipse_path stroke
0 0 0 nodecolor
14 /Times-Roman set_font
27.094 14.3 moveto 81 (COMANDO) alignedtext
grestore
% n2->n3
gsave
1 setlinewidth
0 0 0 edgecolor
newpath 67.594 71.6966 moveto
67.594 63.9827 67.594 54.7125 67.594 46.1124 curveto
stroke
0 0 0 edgecolor
newpath 71.0941 46.1043 moveto
67.594 36.1043 lineto
64.0941 46.1044 lineto
closepath fill
1 setlinewidth
solid
0 0 0 edgecolor
newpath 71.0941 46.1043 moveto
67.594 36.1043 lineto
64.0941 46.1044 lineto
closepath stroke
grestore
endpage
showpage
grestore
%%PageTrailer
%%EndPage: 1
%%Trailer
%%Pages: 1
%%BoundingBox: 36 36 179 296
end
restore
%%EOF
